<?xml version="1.0" encoding="UTF-8" standalone="no"?>
<!-- Created with Inkscape (http://www.inkscape.org/) -->

<svg
   width="210mm"
   height="297mm"
   viewBox="0 0 210 297"
   version="1.1"
   id="svg5"
   sodipodi:docname="logo-monochrome-DARK.svg"
   inkscape:version="1.2.1 (9c6d41e410, 2022-07-14, custom)"
   inkscape:export-filename="../logo-color-DARK-compact.png"
   inkscape:export-xdpi="96"
   inkscape:export-ydpi="96"
   xmlns:inkscape="http://www.inkscape.org/namespaces/inkscape"
   xmlns:sodipodi="http://sodipodi.sourceforge.net/DTD/sodipodi-0.dtd"
   xmlns="http://www.w3.org/2000/svg"
   xmlns:svg="http://www.w3.org/2000/svg">
  <sodipodi:namedview
     id="namedview7"
     pagecolor="#505050"
     bordercolor="#eeeeee"
     borderopacity="1"
     inkscape:showpageshadow="0"
     inkscape:pageopacity="0"
     inkscape:pagecheckerboard="0"
     inkscape:deskcolor="#505050"
     inkscape:document-units="mm"
     showgrid="false"
     inkscape:zoom="0.34772036"
     inkscape:cx="297.65298"
     inkscape:cy="592.43008"
     inkscape:window-width="1366"
     inkscape:window-height="742"
     inkscape:window-x="0"
     inkscape:window-y="0"
     inkscape:window-maximized="1"
     inkscape:current-layer="layer1" />
  <defs
     id="defs2">
    <inkscape:path-effect
       effect="spiro"
       id="path-effect739"
       is_visible="true"
       lpeversion="1" />
  </defs>
  <g
     inkscape:groupmode="layer"
     id="layer2"
     inkscape:label="Background">
    <circle
       style="fill:#000000;fill-opacity:1;stroke:#000000;stroke-width:3.54234;stroke-linecap:square;stroke-linejoin:bevel;stroke-miterlimit:1;stroke-dasharray:none;stroke-opacity:1"
       id="path18522"
       cx="105"
       cy="155.36685"
       r="103.22883" />
  </g>
  <g
     inkscape:label="Layer 1"
     inkscape:groupmode="layer"
     id="layer1">
    <path
       style="fill:#ffffff;fill-opacity:1;stroke:#ffffff;stroke-width:7.20948;stroke-dasharray:none;stroke-opacity:1"
       d="m 93.901714,102.43208 4.741015,15.94706 h 12.714541 l 4.74101,-15.94706 z"
       id="path3671"
       sodipodi:nodetypes="ccccc" />
    <path
       style="fill:#ffffff;fill-opacity:1;stroke:#ffffff;stroke-width:7.20948;stroke-dasharray:none;stroke-opacity:1"
       d="m 116.22939,79.873173 -4.72319,-15.95237 -12.714553,-0.0142 -4.758805,15.94175 z"
       id="path3671-0-9-3"
       sodipodi:nodetypes="ccccc" />
    <path
       style="fill:#ffffff;fill-opacity:1;stroke:#ffffff;stroke-width:7.20948;stroke-dasharray:none;stroke-opacity:1"
       d="m 163.09896,106.44145 6.85477,-15.159097 -9.61193,-8.32288 -14.02297,8.9522 z"
       id="path3671-0-9-3-0"
       sodipodi:nodetypes="ccccc" />
    <rect
       style="fill:#ffffff;fill-opacity:1;stroke:#fcfcfc;stroke-width:6.34387;stroke-dasharray:none;stroke-opacity:1"
       id="rect11476"
       width="6.941256"
       height="67.214989"
       x="66.223335"
       y="-189.25926"
       transform="scale(1,-1)" />
    <rect
       style="fill:#ffffff;fill-opacity:1;stroke:#fcfcfc;stroke-width:6.34387;stroke-dasharray:none;stroke-opacity:1"
       id="rect11476-2"
       width="6.941256"
       height="67.214989"
       x="136.8354"
       y="-189.25926"
       transform="scale(1,-1)" />
    <rect
       style="fill:#ffffff;fill-opacity:1;stroke:#fcfcfc;stroke-width:8.36499;stroke-linecap:butt;stroke-linejoin:bevel;stroke-miterlimit:1;stroke-dasharray:none;stroke-opacity:1"
       id="rect11476-6"
       width="6.3788958"
       height="77.635956"
       x="101.81055"
       y="-212.08505"
       transform="scale(1,-1)" />
    <path
       style="fill:#ffffff;fill-opacity:1;stroke:#ffffff;stroke-width:7.20948;stroke-dasharray:none;stroke-opacity:1"
       d="m 176.85089,128.87268 16.60093,1.09328 2.81454,12.39912 -14.50193,8.1535 z"
       id="path3671-0-8"
       sodipodi:nodetypes="ccccc" />
    <path
       id="path15071"
       style="fill:none;fill-opacity:1;stroke:#ffffff;stroke-width:9;stroke-linecap:butt;stroke-linejoin:bevel;stroke-dasharray:none;stroke-opacity:1"
       d="m 174.81334,156.029 v 0 A 69.813339,69.813339 0 0 0 105,86.215663 69.813339,69.813339 0 0 0 35.186656,156.029" />
    <path
       style="fill:#ffffff;fill-opacity:1;stroke:#ffffff;stroke-width:7.20948;stroke-dasharray:none;stroke-opacity:1"
       d="m 46.901033,106.44145 -6.85477,-15.159097 9.61193,-8.32288 14.02297,8.9522 z"
       id="path3671-0-9-3-0-9"
       sodipodi:nodetypes="ccccc" />
    <path
       style="fill:#ffffff;fill-opacity:1;stroke:#ffffff;stroke-width:7.20948;stroke-dasharray:none;stroke-opacity:1"
       d="m 33.149103,128.87268 -16.60093,1.09328 -2.81454,12.39912 14.50193,8.1535 z"
       id="path3671-0-8-2"
       sodipodi:nodetypes="ccccc" />
    <path
       sodipodi:type="star"
       style="fill:#ffffff;fill-opacity:1;stroke:#ffffff;stroke-width:4.69241;stroke-linecap:butt;stroke-linejoin:round;stroke-miterlimit:1;stroke-dasharray:none;stroke-opacity:1"
       id="path20902-5-9-8"
       inkscape:flatsided="false"
       sodipodi:sides="3"
       sodipodi:cx="210"
       sodipodi:cy="0"
       sodipodi:r1="21.521738"
       sodipodi:r2="10.760869"
       sodipodi:arg1="-1.5707963"
       sodipodi:arg2="-0.52359878"
       inkscape:rounded="0"
       inkscape:randomized="0"
       d="m 210,-21.521738 9.31919,16.1413034 9.31918,16.1413046 -18.63837,-1e-6 -18.63837,0 9.31918,-16.1413035 z"
       inkscape:transform-center-y="3.6929564"
       transform="matrix(0.68636856,0,0,-0.68636856,-39.137402,233.54655)"
       inkscape:transform-center-x="-9.0913416e-06" />
  </g>
</svg>
